{
  "name": "flannon-sockpuppet",
  "version": "0.1.0",
  "author": "flannon",
  "summary": "Builds out the local puppet directory and installs thsockpuppet wrapper.",
  "license": "Apache-2.0",
  "source": "https://gitlab.com/flannon/puppet-sockpuppet",
  "project_page": null,
  "issues_url": null,
  "dependencies": [
    {"name":"puppetlabs-stdlib","version_requirement":">= 1.0.0"}
  ],
  "data_provider": null
}

